{
  "name": "Catalog en Java Service",
  "version": "0.1.0",
  "description": "Microservicio de Catálogo",
  "title": "Microservicio de Catálogo",
  "url": "",
  "sampleUrl": false,
  "defaultVersion": "0.0.0",
  "apidoc": "0.3.0",
  "generator": {
    "name": "apidoc",
    "time": "2018-11-19T20:30:30.994Z",
    "url": "http://apidocjs.com",
    "version": "0.17.7"
  }
}
